…
mcor_social %>%
  data.frame() %>%
  round(2) %>%
  rownames_to_column() %>%
  pivot_longer(cols = -rowname) %>%
  filter(!is.na(value), value != 1) %>%
  arrange(desc(value)) %>%
  rename(variable1 = rowname, variable2 = name, korrelation = value)
```

    ## # A tibble: 45 × 3
    ##    variable1         variable2              korrelation
    ##    <chr>             <chr>                        <dbl>
    ##  1 anteil_wohnblock  anzahl_haushalte              0.74
    ##  2 kreditrisiko      anteil_wohnblock              0.7 
    ##  3 kreditrisiko      arbeitslosenquote             0.59
    ##  4 anteil_wohnblock  arbeitslosenquote             0.56
    ##  5 kreditrisiko      anzahl_haushalte              0.56
    ##  6 kreditrisiko      anteil_auslaender             0.45
    ##  7 anteil_auslaender anteil_wohnblock              0.43
    ##  8 anteil_efh        kaufkraft_pro_haushalt        0.42
    ##  9 arbeitslosenquote anzahl_haushalte              0.4 
    ## 10 anteil_auslaender anzahl_haushalte              0.4 
    ## # ℹ 35 more rows
…
